{
	"attack":
	{
		"name": "Sword Swing",
		"internalName": "SwordSwing",
		"pushback": "4",
		"level": "0",
		"treasure": "false",
		"description": "",
		"sounds": [
			{
				"name": "Sword1"
			},
			{
				"name": "Sword2"
			},
			{
				"name": "Sword3"
			}
		]
	}
}